digraph "MvcApplication1.Controllers.UsuarioController"
{
  edge [fontname="Helvetica",fontsize="10",labelfontname="Helvetica",labelfontsize="10"];
  node [fontname="Helvetica",fontsize="10",shape=record];
  Node0 [label="MvcApplication1.Controllers.\lUsuarioController",height=0.2,width=0.4,color="black", fillcolor="grey75", style="filled", fontcolor="black"];
  Node1 -> Node0 [dir="back",color="midnightblue",fontsize="10",style="solid",fontname="Helvetica"];
  Node1 [label="BasicController",height=0.2,width=0.4,color="black", fillcolor="white", style="filled",URL="$class_mvc_application1_1_1_controllers_1_1_basic_controller.html"];
  Node2 -> Node1 [dir="back",color="midnightblue",fontsize="10",style="solid",fontname="Helvetica"];
  Node2 [label="Controller",height=0.2,width=0.4,color="grey75", fillcolor="white", style="filled"];
}
