digraph "Graphical Class Hierarchy"
{
  edge [fontname="Helvetica",fontsize="10",labelfontname="Helvetica",labelfontsize="10"];
  node [fontname="Helvetica",fontsize="10",shape=record];
  rankdir="LR";
  Node0 [label="Controller",height=0.2,width=0.4,color="grey75", fillcolor="white", style="filled"];
  Node0 -> Node0 [dir="back",color="midnightblue",fontsize="10",style="solid",fontname="Helvetica"];
  Node0 [label="MvcApplication1.Controllers.\lAccountController",height=0.2,width=0.4,color="black", fillcolor="white", style="filled",URL="$class_mvc_application1_1_1_controllers_1_1_account_controller.html"];
  Node0 -> Node2 [dir="back",color="midnightblue",fontsize="10",style="solid",fontname="Helvetica"];
  Node2 [label="MvcApplication1.Controllers.\lArtistaController",height=0.2,width=0.4,color="black", fillcolor="white", style="filled",URL="$class_mvc_application1_1_1_controllers_1_1_artista_controller.html"];
  Node0 -> Node3 [dir="back",color="midnightblue",fontsize="10",style="solid",fontname="Helvetica"];
  Node3 [label="MvcApplication1.Controllers.\lBasicController",height=0.2,width=0.4,color="black", fillcolor="white", style="filled",URL="$class_mvc_application1_1_1_controllers_1_1_basic_controller.html"];
  Node3 -> Node4 [dir="back",color="midnightblue",fontsize="10",style="solid",fontname="Helvetica"];
  Node4 [label="MvcApplication1.Controllers.\lCancionController",height=0.2,width=0.4,color="black", fillcolor="white", style="filled",URL="$class_mvc_application1_1_1_controllers_1_1_cancion_controller.html"];
  Node3 -> Node5 [dir="back",color="midnightblue",fontsize="10",style="solid",fontname="Helvetica"];
  Node5 [label="MvcApplication1.Controllers.\lHomeController",height=0.2,width=0.4,color="black", fillcolor="white", style="filled",URL="$class_mvc_application1_1_1_controllers_1_1_home_controller.html"];
  Node3 -> Node6 [dir="back",color="midnightblue",fontsize="10",style="solid",fontname="Helvetica"];
  Node6 [label="MvcApplication1.Controllers.\lUsuarioController",height=0.2,width=0.4,color="black", fillcolor="white", style="filled",URL="$class_mvc_application1_1_1_controllers_1_1_usuario_controller.html"];
}
